Biologia della Conservazione 24/25 – Biologia della conservazione
…
Loading the data in to R

We can read excel files in R, but we first need to install and load a specific library that can help us doing that

install.packages("readxl", repos = "https://cloud.r-project.org")
library(readxl)

Now that the library is loaded we can load the excel file

kestrel <- read_excel("/PATH/TO/EXCEL/FILE/Groombridge_et_al_genotypes_data.xlsx",
           sheet = 1, col_types = "guess", na = "\\N")
kestrel

# A tibble: 153 × 27
   ID      Species   Info  MS1_A MS1_B MS2_A MS2_B MS3_A MS3_B MS4_A MS4_B MS5_A
   <chr>   <chr>     <chr> <dbl> <dbl> <dbl> <dbl> <dbl> <dbl> <dbl> <dbl> <dbl>
 1 Kest_1  F.puncta… Muse…   110   110   134   134   210   210    97    97   136
 2 Kest_2  F.puncta… Muse…   108   108    NA    NA   176   176    97    97    NA
 3 Kest_3  F.puncta… Muse…   110   108   108   108   228   222    97    97   136
 4 Kest_4  F.puncta… Muse…   110   108   108   108   180   180    97    97   136
 5 Kest_5  F.puncta… Muse…   110   108   108   108   222   210    97    97   136
 6 Kest_6  F.puncta… Muse…   108   108    NA    NA    NA    NA    97    97    NA
 7 Kest_7  F.puncta… Muse…   108   108   134   134   216   216    97    97    NA
 8 Kest_8  F.puncta… Muse…   108   108   134   134   210   192    97    97    NA
 9 Kest_9  F.puncta… Muse…   110   108   136   134   228   216    97    97   136
10 Kest_10 F.puncta… Muse…   108   108    NA    NA    NA    NA    97    97   136
# ℹ 143 more rows
# ℹ 15 more variables: MS5_B <dbl>, MS6_A <dbl>, MS6_B <dbl>, MS7_A <dbl>,
#   MS7_B <dbl>, MS8_A <dbl>, MS8_B <dbl>, MS9_A <dbl>, MS9_B <dbl>,
#   MS10_A <dbl>, MS10_B <dbl>, MS11_A <dbl>, MS11_B <dbl>, MS12_A <dbl>,
#   MS12_B <dbl>
…
